ArithmeticOperation/test_run_dir/Operation_should_work/ArithmeticOperation.vcd
$date
2026-05-21T09:33+0000
$end
$version
0.2
$end
$comment

$end
$timescale 1ns  $end
$scope module ArithmeticOperation $end
 $var wire 8 ! io_mulOut $end
 $var wire 8 " io_modOut $end
 $var wire 1 # clock $end
 $var wire 8 $ io_negOut $end
 $var wire 8 % io_divOut $end
 $var wire 8 & io_aIn $end
 $var wire 8 ' io_subOut $end
 $var wire 1 ( reset $end
 $var wire 8 ) io_bIn $end
 $var wire 8 * io_addOut $end
$upscope $end
$enddefinitions $end
$dumpvars
b00000000 *
0#
b00000000 '
b00000000 &
b00000000 )
0(
b00000000 "
b00000000 %
b00000000 $
b00000000 !
$end
#0
1(
#1
1#
#6
0#
0(
#11
1#
#16
0#
b11111111 '
b00000001 )
b00000001 *
#21
1#
#26
0#
b11111110 '
b00000010 )
b00000010 *
#31
1#
#36
0#
b11111101 '
b00000011 )
b00000011 *
#41
1#
#46
0#
b11111100 '
b00000100 )
b00000100 *
#51
1#
#56
0#
b11111011 '
b00000101 )
b00000101 *
#61
1#
#66
0#
b11111010 '
b00000110 )
b00000110 *
#71
1#
#76
0#
b11111001 '
b00000111 )
b00000111 *
#81
1#
#86
0#
b11111000 '
b00001000 )
b00001000 *
#91
1#
#96
0#
b11110111 '
b00001001 )
b00001001 *
#101
1#
#106
b00000000 !
b00000000 "
0#
b11111111 $
b00000001 &
b00000001 '
b00000000 )
b00000001 *
#111
1#
#116
b00000001 !
0#
b00000001 %
b00000000 '
b00000001 )
b00000010 *
#121
1#
#126
b00000010 !
b00000001 "
0#
b00000000 %
b11111111 '
b00000010 )
b00000011 *
#131
1#
#136
b00000011 !
0#
b11111110 '
b00000011 )
b00000100 *
#141
1#
#146
b00000100 !
0#
b11111101 '
b00000100 )
b00000101 *
#151
1#
#156
b00000101 !
0#
b11111100 '
b00000101 )
b00000110 *
#161
1#
#166
b00000110 !
0#
b11111011 '
b00000110 )
b00000111 *
#171
1#
#176
b00000111 !
0#
b11111010 '
b00000111 )
b00001000 *
#181
1#
#186
b00001000 !
0#
b11111001 '
b00001000 )
b00001001 *
#191
1#
#196
b00001001 !
0#
b11111000 '
b00001001 )
b00001010 *
#201
1#
#206
b00000000 !
b00000000 "
0#
b11111110 $
b00000010 &
b00000010 '
b00000000 )
b00000010 *
#211
1#
#216
b00000010 !
0#
b00000010 %
b00000001 '
b00000001 )
b00000011 *
#221
1#
#226
b00000100 !
0#
b00000001 %
b00000000 '
b00000010 )
b00000100 *
#231
1#
#236
b00000110 !
b00000010 "
0#
b00000000 %
b11111111 '
b00000011 )
b00000101 *
#241
1#
#246
b00001000 !
0#
b11111110 '
b00000100 )
b00000110 *
#251
1#
#256
b00001010 !
0#
b11111101 '
b00000101 )
b00000111 *
#261
1#
#266
b00001100 !
0#
b11111100 '
b00000110 )
b00001000 *
#271
1#
#276
b00001110 !
0#
b11111011 '
b00000111 )
b00001001 *
#281
1#
#286
b00010000 !
0#
b11111010 '
b00001000 )
b00001010 *
#291
1#
#296
b00010010 !
0#
b11111001 '
b00001001 )
b00001011 *
#301
1#
#306
b00000000 !
b00000000 "
0#
b11111101 $
b00000011 &
b00000011 '
b00000000 )
b00000011 *
#311
1#
#316
b00000011 !
0#
b00000011 %
b00000010 '
b00000001 )
b00000100 *
#321
1#
#326
b00000110 !
b00000001 "
0#
b00000001 %
b00000001 '
b00000010 )
b00000101 *
#331
1#
#336
b00001001 !
b00000000 "
0#
b00000000 '
b00000011 )
b00000110 *
#341
1#
#346
b00001100 !
b00000011 "
0#
b00000000 %
b11111111 '
b00000100 )
b00000111 *
#351
1#
#356
b00001111 !
0#
b11111110 '
b00000101 )
b00001000 *
#361
1#
#366
b00010010 !
0#
b11111101 '
b00000110 )
b00001001 *
#371
1#
#376
b00010101 !
0#
b11111100 '
b00000111 )
b00001010 *
#381
1#
#386
b00011000 !
0#
b11111011 '
b00001000 )
b00001011 *
#391
1#
#396
b00011011 !
0#
b11111010 '
b00001001 )
b00001100 *
#401
1#
#406
b00000000 !
b00000000 "
0#
b11111100 $
b00000100 &
b00000100 '
b00000000 )
b00000100 *
#411
1#
#416
b00000100 !
0#
b00000100 %
b00000011 '
b00000001 )
b00000101 *
#421
1#
#426
b00001000 !
0#
b00000010 %
b00000010 '
b00000010 )
b00000110 *
#431
1#
#436
b00001100 !
b00000001 "
0#
b00000001 %
b00000001 '
b00000011 )
b00000111 *
#441
1#
#446
b00010000 !
b00000000 "
0#
b00000000 '
b00000100 )
b00001000 *
#451
1#
#456
b00010100 !
b00000100 "
0#
b00000000 %
b11111111 '
b00000101 )
b00001001 *
#461
1#
#466
b00011000 !
0#
b11111110 '
b00000110 )
b00001010 *
#471
1#
#476
b00011100 !
0#
b11111101 '
b00000111 )
b00001011 *
#481
1#
#486
b00100000 !
0#
b11111100 '
b00001000 )
b00001100 *
#491
1#
#496
b00100100 !
0#
b11111011 '
b00001001 )
b00001101 *
#501
1#
#506
b00000000 !
b00000000 "
0#
b11111011 $
b00000101 &
b00000101 '
b00000000 )
b00000101 *
#511
1#
#516
b00000101 !
0#
b00000101 %
b00000100 '
b00000001 )
b00000110 *
#521
1#
#526
b00001010 !
b00000001 "
0#
b00000010 %
b00000011 '
b00000010 )
b00000111 *
#531
1#
#536
b00001111 !
b00000010 "
0#
b00000001 %
b00000010 '
b00000011 )
b00001000 *
#541
1#
#546
b00010100 !
b00000001 "
0#
b00000001 '
b00000100 )
b00001001 *
#551
1#
#556
b00011001 !
b00000000 "
0#
b00000000 '
b00000101 )
b00001010 *
#561
1#
#566
b00011110 !
b00000101 "
0#
b00000000 %
b11111111 '
b00000110 )
b00001011 *
#571
1#
#576
b00100011 !
0#
b11111110 '
b00000111 )
b00001100 *
#581
1#
#586
b00101000 !
0#
b11111101 '
b00001000 )
b00001101 *
#591
1#
#596
b00101101 !
0#
b11111100 '
b00001001 )
b00001110 *
#601
1#
#606
b00000000 !
b00000000 "
0#
b11111010 $
b00000110 &
b00000110 '
b00000000 )
b00000110 *
#611
1#
#616
b00000110 !
0#
b00000110 %
b00000101 '
b00000001 )
b00000111 *
#621
1#
#626
b00001100 !
0#
b00000011 %
b00000100 '
b00000010 )
b00001000 *
#631
1#
#636
b00010010 !
0#
b00000010 %
b00000011 '
b00000011 )
b00001001 *
#641
1#
#646
b00011000 !
b00000010 "
0#
b00000001 %
b00000010 '
b00000100 )
b00001010 *
#651
1#
#656
b00011110 !
b00000001 "
0#
b00000001 '
b00000101 )
b00001011 *
#661
1#
#666
b00100100 !
b00000000 "
0#
b00000000 '
b00000110 )
b00001100 *
#671
1#
#676
b00101010 !
b00000110 "
0#
b00000000 %
b11111111 '
b00000111 )
b00001101 *
#681
1#
#686
b00110000 !
0#
b11111110 '
b00001000 )
b00001110 *
#691
1#
#696
b00110110 !
0#
b11111101 '
b00001001 )
b00001111 *
#701
1#
#706
b00000000 !
b00000000 "
0#
b11111001 $
b00000111 &
b00000111 '
b00000000 )
b00000111 *
#711
1#
#716
b00000111 !
0#
b00000111 %
b00000110 '
b00000001 )
b00001000 *
#721
1#
#726
b00001110 !
b00000001 "
0#
b00000011 %
b00000101 '
b00000010 )
b00001001 *
#731
1#
#736
b00010101 !
0#
b00000010 %
b00000100 '
b00000011 )
b00001010 *
#741
1#
#746
b00011100 !
b00000011 "
0#
b00000001 %
b00000011 '
b00000100 )
b00001011 *
#751
1#
#756
b00100011 !
b00000010 "
0#
b00000010 '
b00000101 )
b00001100 *
#761
1#
#766
b00101010 !
b00000001 "
0#
b00000001 '
b00000110 )
b00001101 *
#771
1#
#776
b00110001 !
b00000000 "
0#
b00000000 '
b00000111 )
b00001110 *
#781
1#
#786
b00111000 !
b00000111 "
0#
b00000000 %
b11111111 '
b00001000 )
b00001111 *
#791
1#
#796
b00111111 !
0#
b11111110 '
b00001001 )
b00010000 *
#801
1#
#806
b00000000 !
b00000000 "
0#
b11111000 $
b00001000 &
b00001000 '
b00000000 )
b00001000 *
#811
1#
#816
b00001000 !
0#
b00001000 %
b00000111 '
b00000001 )
b00001001 *
#821
1#
#826
b00010000 !
0#
b00000100 %
b00000110 '
b00000010 )
b00001010 *
#831
1#
#836
b00011000 !
b00000010 "
0#
b00000010 %
b00000101 '
b00000011 )
b00001011 *
#841
1#
#846
b00100000 !
b00000000 "
0#
b00000100 '
b00000100 )
b00001100 *
#851
1#
#856
b00101000 !
b00000011 "
0#
b00000001 %
b00000011 '
b00000101 )
b00001101 *
#861
1#
#866
b00110000 !
b00000010 "
0#
b00000010 '
b00000110 )
b00001110 *
#871
1#
#876
b00111000 !
b00000001 "
0#
b00000001 '
b00000111 )
b00001111 *
#881
1#
#886
b01000000 !
b00000000 "
0#
b00000000 '
b00001000 )
b00010000 *
#891
1#
#896
b01001000 !
b00001000 "
0#
b00000000 %
b11111111 '
b00001001 )
b00010001 *
#901
1#
#906
b00000000 !
b00000000 "
0#
b11110111 $
b00000000 %
b00001001 &
b00001001 '
b00000000 )
b00001001 *
#911
1#
#916
b00001001 !
0#
b00001001 %
b00001000 '
b00000001 )
b00001010 *
#921
1#
#926
b00010010 !
b00000001 "
0#
b00000100 %
b00000111 '
b00000010 )
b00001011 *
#931
1#
#936
b00011011 !
b00000000 "
0#
b00000011 %
b00000110 '
b00000011 )
b00001100 *
#941
1#
#946
b00100100 !
b00000001 "
0#
b00000010 %
b00000101 '
b00000100 )
b00001101 *
#951
1#
#956
b00101101 !
b00000100 "
0#
b00000001 %
b00000100 '
b00000101 )
b00001110 *
#961
1#
#966
b00110110 !
b00000011 "
0#
b00000011 '
b00000110 )
b00001111 *
#971
1#
#976
b00111111 !
b00000010 "
0#
b00000010 '
b00000111 )
b00010000 *
#981
1#
#986
b01001000 !
b00000001 "
0#
b00000001 '
b00001000 )
b00010001 *
#991
1#
#996
b01010001 !
b00000000 "
0#
b00000000 '
b00001001 )
b00010010 *
#1001
1#
#1006
0#
b00000000 &
b00000000 )
