MemoryAsync/test_run_dir/WaveSpec_should_pass/IMem.vcd
$date
2024-12-03T02:40+0000
$end
$version
0.2
$end
$comment

$end
$timescale 1ns  $end
$scope module IMem $end
 $var wire 16 # io_instrOut $end
 $var wire 8 $ mem $end
 $var wire 10 % io_addrIn $end
 $var wire 1 & reset $end
 $var wire 1 ' clock $end
  $scope module mem $end
    $scope module io_instrOut_MPORT $end
     $var wire 1 ! clk $end
     $var wire 8 " data $end
     $var wire 10 ( addr $end
     $var wire 1 ) en $end
    $upscope $end
  $upscope $end
$upscope $end
$enddefinitions $end
$dumpvars
b0000000000 (
0!
b0000000000000000 #
0&
b00001010 $
0'
1)
b00000000 "
b0000000000 %
$end
#0
b00001010 "
b0000000000001010 #
1&
#1
1!
1'
#6
0!
0&
0'
#11
1!
1'
#16
0!
b00011011 "
b0000000000011011 #
b0000000001 %
0'
b0000000001 (
#21
1!
1'
#26
0!
b00101100 "
b0000000000101100 #
b0000000010 %
0'
b0000000010 (
#31
1!
1'
#36
0!
b00111101 "
b0000000000111101 #
b0000000011 %
0'
b0000000011 (
#41
1!
1'
#46
0!
b00000000 "
b0000000000000000 #
b0000000100 %
0'
b0000000100 (
#51
1!
1'
#56
0!
b0000000101 %
0'
b0000000101 (
#61
1!
1'
#66
0!
b0000000110 %
0'
b0000000110 (
#71
1!
1'
#76
0!
b0000000111 %
0'
b0000000111 (
#81
1!
1'
#86
0!
b0000001000 %
0'
b0000001000 (
#91
1!
1'
#96
0!
b0000001001 %
0'
b0000001001 (
#101
1!
1'
#106
0!
b0000001010 %
0'
b0000001010 (
#111
1!
1'
#116
0!
b0000001011 %
0'
b0000001011 (
#121
1!
1'
#126
0!
b0000001100 %
0'
b0000001100 (
#131
1!
1'
#136
0!
b0000001101 %
0'
b0000001101 (
#141
1!
1'
#146
0!
b0000001110 %
0'
b0000001110 (
#151
1!
1'
#156
0!
b0000001111 %
0'
b0000001111 (
#161
1!
1'
#166
0!
b0000010000 %
0'
b0000010000 (
#171
1!
1'
#176
0!
b0000010001 %
0'
b0000010001 (
#181
1!
1'
#186
0!
b0000010010 %
0'
b0000010010 (
#191
1!
1'
#196
0!
b0000010011 %
0'
b0000010011 (
#201
1!
1'
#206
0!
b0000010100 %
0'
b0000010100 (
#211
1!
1'
#216
0!
b0000010101 %
0'
b0000010101 (
#221
1!
1'
#226
0!
b0000010110 %
0'
b0000010110 (
#231
1!
1'
#236
0!
b0000010111 %
0'
b0000010111 (
#241
1!
1'
#246
0!
b0000011000 %
0'
b0000011000 (
#251
1!
1'
#256
0!
b0000011001 %
0'
b0000011001 (
#261
1!
1'
#266
0!
b0000011010 %
0'
b0000011010 (
#271
1!
1'
#276
0!
b0000011011 %
0'
b0000011011 (
#281
1!
1'
#286
0!
b0000011100 %
0'
b0000011100 (
#291
1!
1'
#296
0!
b0000011101 %
0'
b0000011101 (
#301
1!
1'
#306
0!
b0000011110 %
0'
b0000011110 (
#311
1!
1'
#316
0!
b0000011111 %
0'
b0000011111 (
#321
1!
1'
#326
0!
b0000100000 %
0'
b0000100000 (
#331
1!
1'
#336
0!
b0000100001 %
0'
b0000100001 (
#341
1!
1'
#346
0!
b0000100010 %
0'
b0000100010 (
#351
1!
1'
#356
0!
b0000100011 %
0'
b0000100011 (
#361
1!
1'
#366
0!
b0000100100 %
0'
b0000100100 (
#371
1!
1'
#376
0!
b0000100101 %
0'
b0000100101 (
#381
1!
1'
#386
0!
b0000100110 %
0'
b0000100110 (
#391
1!
1'
#396
0!
b0000100111 %
0'
b0000100111 (
#401
1!
1'
#406
0!
b0000101000 %
0'
b0000101000 (
#411
1!
1'
#416
0!
b0000101001 %
0'
b0000101001 (
#421
1!
1'
#426
0!
b0000101010 %
0'
b0000101010 (
#431
1!
1'
#436
0!
b0000101011 %
0'
b0000101011 (
#441
1!
1'
#446
0!
b0000101100 %
0'
b0000101100 (
#451
1!
1'
#456
0!
b0000101101 %
0'
b0000101101 (
#461
1!
1'
#466
0!
b0000101110 %
0'
b0000101110 (
#471
1!
1'
#476
0!
b0000101111 %
0'
b0000101111 (
#481
1!
1'
#486
0!
b0000110000 %
0'
b0000110000 (
#491
1!
1'
#496
0!
b0000110001 %
0'
b0000110001 (
#501
1!
1'
#506
0!
b0000110010 %
0'
b0000110010 (
#511
1!
1'
#516
0!
b0000110011 %
0'
b0000110011 (
#521
1!
1'
#526
0!
b0000110100 %
0'
b0000110100 (
#531
1!
1'
#536
0!
b0000110101 %
0'
b0000110101 (
#541
1!
1'
#546
0!
b0000110110 %
0'
b0000110110 (
#551
1!
1'
#556
0!
b0000110111 %
0'
b0000110111 (
#561
1!
1'
#566
0!
b0000111000 %
0'
b0000111000 (
#571
1!
1'
#576
0!
b0000111001 %
0'
b0000111001 (
#581
1!
1'
#586
0!
b0000111010 %
0'
b0000111010 (
#591
1!
1'
#596
0!
b0000111011 %
0'
b0000111011 (
#601
1!
1'
#606
0!
b0000111100 %
0'
b0000111100 (
#611
1!
1'
#616
0!
b0000111101 %
0'
b0000111101 (
#621
1!
1'
#626
0!
b0000111110 %
0'
b0000111110 (
#631
1!
1'
#636
0!
b0000111111 %
0'
b0000111111 (
#641
1!
1'
#646
0!
b0001000000 %
0'
b0001000000 (
#651
1!
1'
#656
0!
b0001000001 %
0'
b0001000001 (
#661
1!
1'
#666
0!
b0001000010 %
0'
b0001000010 (
#671
1!
1'
#676
0!
b0001000011 %
0'
b0001000011 (
#681
1!
1'
#686
0!
b0001000100 %
0'
b0001000100 (
#691
1!
1'
#696
0!
b0001000101 %
0'
b0001000101 (
#701
1!
1'
#706
0!
b0001000110 %
0'
b0001000110 (
#711
1!
1'
#716
0!
b0001000111 %
0'
b0001000111 (
#721
1!
1'
#726
0!
b0001001000 %
0'
b0001001000 (
#731
1!
1'
#736
0!
b0001001001 %
0'
b0001001001 (
#741
1!
1'
#746
0!
b0001001010 %
0'
b0001001010 (
#751
1!
1'
#756
0!
b0001001011 %
0'
b0001001011 (
#761
1!
1'
#766
0!
b0001001100 %
0'
b0001001100 (
#771
1!
1'
#776
0!
b0001001101 %
0'
b0001001101 (
#781
1!
1'
#786
0!
b0001001110 %
0'
b0001001110 (
#791
1!
1'
#796
0!
b0001001111 %
0'
b0001001111 (
#801
1!
1'
#806
0!
b0001010000 %
0'
b0001010000 (
#811
1!
1'
#816
0!
b0001010001 %
0'
b0001010001 (
#821
1!
1'
#826
0!
b0001010010 %
0'
b0001010010 (
#831
1!
1'
#836
0!
b0001010011 %
0'
b0001010011 (
#841
1!
1'
#846
0!
b0001010100 %
0'
b0001010100 (
#851
1!
1'
#856
0!
b0001010101 %
0'
b0001010101 (
#861
1!
1'
#866
0!
b0001010110 %
0'
b0001010110 (
#871
1!
1'
#876
0!
b0001010111 %
0'
b0001010111 (
#881
1!
1'
#886
0!
b0001011000 %
0'
b0001011000 (
#891
1!
1'
#896
0!
b0001011001 %
0'
b0001011001 (
#901
1!
1'
#906
0!
b0001011010 %
0'
b0001011010 (
#911
1!
1'
#916
0!
b0001011011 %
0'
b0001011011 (
#921
1!
1'
#926
0!
b0001011100 %
0'
b0001011100 (
#931
1!
1'
#936
0!
b0001011101 %
0'
b0001011101 (
#941
1!
1'
#946
0!
b0001011110 %
0'
b0001011110 (
#951
1!
1'
#956
0!
b0001011111 %
0'
b0001011111 (
#961
1!
1'
#966
0!
b0001100000 %
0'
b0001100000 (
#971
1!
1'
#976
0!
b0001100001 %
0'
b0001100001 (
#981
1!
1'
#986
0!
b0001100010 %
0'
b0001100010 (
#991
1!
1'
#996
0!
b0001100011 %
0'
b0001100011 (
#1001
1!
1'
#1006
0!
b0001100100 %
0'
b0001100100 (
#1011
1!
1'
#1016
0!
b0001100101 %
0'
b0001100101 (
#1021
1!
1'
#1026
0!
b0001100110 %
0'
b0001100110 (
#1031
1!
1'
#1036
0!
b0001100111 %
0'
b0001100111 (
#1041
1!
1'
#1046
0!
b0001101000 %
0'
b0001101000 (
#1051
1!
1'
#1056
0!
b0001101001 %
0'
b0001101001 (
#1061
1!
1'
#1066
0!
b0001101010 %
0'
b0001101010 (
#1071
1!
1'
#1076
0!
b0001101011 %
0'
b0001101011 (
#1081
1!
1'
#1086
0!
b0001101100 %
0'
b0001101100 (
#1091
1!
1'
#1096
0!
b0001101101 %
0'
b0001101101 (
#1101
1!
1'
#1106
0!
b0001101110 %
0'
b0001101110 (
#1111
1!
1'
#1116
0!
b0001101111 %
0'
b0001101111 (
#1121
1!
1'
#1126
0!
b0001110000 %
0'
b0001110000 (
#1131
1!
1'
#1136
0!
b0001110001 %
0'
b0001110001 (
#1141
1!
1'
#1146
0!
b0001110010 %
0'
b0001110010 (
#1151
1!
1'
#1156
0!
b0001110011 %
0'
b0001110011 (
#1161
1!
1'
#1166
0!
b0001110100 %
0'
b0001110100 (
#1171
1!
1'
#1176
0!
b0001110101 %
0'
b0001110101 (
#1181
1!
1'
#1186
0!
b0001110110 %
0'
b0001110110 (
#1191
1!
1'
#1196
0!
b0001110111 %
0'
b0001110111 (
#1201
1!
1'
#1206
0!
b0001111000 %
0'
b0001111000 (
#1211
1!
1'
#1216
0!
b0001111001 %
0'
b0001111001 (
#1221
1!
1'
#1226
0!
b0001111010 %
0'
b0001111010 (
#1231
1!
1'
#1236
0!
b0001111011 %
0'
b0001111011 (
#1241
1!
1'
#1246
0!
b0001111100 %
0'
b0001111100 (
#1251
1!
1'
#1256
0!
b0001111101 %
0'
b0001111101 (
#1261
1!
1'
#1266
0!
b0001111110 %
0'
b0001111110 (
#1271
1!
1'
#1276
0!
b0001111111 %
0'
b0001111111 (
#1281
1!
1'
#1286
0!
b0010000000 %
0'
b0010000000 (
#1291
1!
1'
#1296
0!
b0010000001 %
0'
b0010000001 (
#1301
1!
1'
#1306
0!
b0010000010 %
0'
b0010000010 (
#1311
1!
1'
#1316
0!
b0010000011 %
0'
b0010000011 (
#1321
1!
1'
#1326
0!
b0010000100 %
0'
b0010000100 (
#1331
1!
1'
#1336
0!
b0010000101 %
0'
b0010000101 (
#1341
1!
1'
#1346
0!
b0010000110 %
0'
b0010000110 (
#1351
1!
1'
#1356
0!
b0010000111 %
0'
b0010000111 (
#1361
1!
1'
#1366
0!
b0010001000 %
0'
b0010001000 (
#1371
1!
1'
#1376
0!
b0010001001 %
0'
b0010001001 (
#1381
1!
1'
#1386
0!
b0010001010 %
0'
b0010001010 (
#1391
1!
1'
#1396
0!
b0010001011 %
0'
b0010001011 (
#1401
1!
1'
#1406
0!
b0010001100 %
0'
b0010001100 (
#1411
1!
1'
#1416
0!
b0010001101 %
0'
b0010001101 (
#1421
1!
1'
#1426
0!
b0010001110 %
0'
b0010001110 (
#1431
1!
1'
#1436
0!
b0010001111 %
0'
b0010001111 (
#1441
1!
1'
#1446
0!
b0010010000 %
0'
b0010010000 (
#1451
1!
1'
#1456
0!
b0010010001 %
0'
b0010010001 (
#1461
1!
1'
#1466
0!
b0010010010 %
0'
b0010010010 (
#1471
1!
1'
#1476
0!
b0010010011 %
0'
b0010010011 (
#1481
1!
1'
#1486
0!
b0010010100 %
0'
b0010010100 (
#1491
1!
1'
#1496
0!
b0010010101 %
0'
b0010010101 (
#1501
1!
1'
#1506
0!
b0010010110 %
0'
b0010010110 (
#1511
1!
1'
#1516
0!
b0010010111 %
0'
b0010010111 (
#1521
1!
1'
#1526
0!
b0010011000 %
0'
b0010011000 (
#1531
1!
1'
#1536
0!
b0010011001 %
0'
b0010011001 (
#1541
1!
1'
#1546
0!
b0010011010 %
0'
b0010011010 (
#1551
1!
1'
#1556
0!
b0010011011 %
0'
b0010011011 (
#1561
1!
1'
#1566
0!
b0010011100 %
0'
b0010011100 (
#1571
1!
1'
#1576
0!
b0010011101 %
0'
b0010011101 (
#1581
1!
1'
#1586
0!
b0010011110 %
0'
b0010011110 (
#1591
1!
1'
#1596
0!
b0010011111 %
0'
b0010011111 (
#1601
1!
1'
#1606
0!
b0010100000 %
0'
b0010100000 (
#1611
1!
1'
#1616
0!
b0010100001 %
0'
b0010100001 (
#1621
1!
1'
#1626
0!
b0010100010 %
0'
b0010100010 (
#1631
1!
1'
#1636
0!
b0010100011 %
0'
b0010100011 (
#1641
1!
1'
#1646
0!
b0010100100 %
0'
b0010100100 (
#1651
1!
1'
#1656
0!
b0010100101 %
0'
b0010100101 (
#1661
1!
1'
#1666
0!
b0010100110 %
0'
b0010100110 (
#1671
1!
1'
#1676
0!
b0010100111 %
0'
b0010100111 (
#1681
1!
1'
#1686
0!
b0010101000 %
0'
b0010101000 (
#1691
1!
1'
#1696
0!
b0010101001 %
0'
b0010101001 (
#1701
1!
1'
#1706
0!
b0010101010 %
0'
b0010101010 (
#1711
1!
1'
#1716
0!
b0010101011 %
0'
b0010101011 (
#1721
1!
1'
#1726
0!
b0010101100 %
0'
b0010101100 (
#1731
1!
1'
#1736
0!
b0010101101 %
0'
b0010101101 (
#1741
1!
1'
#1746
0!
b0010101110 %
0'
b0010101110 (
#1751
1!
1'
#1756
0!
b0010101111 %
0'
b0010101111 (
#1761
1!
1'
#1766
0!
b0010110000 %
0'
b0010110000 (
#1771
1!
1'
#1776
0!
b0010110001 %
0'
b0010110001 (
#1781
1!
1'
#1786
0!
b0010110010 %
0'
b0010110010 (
#1791
1!
1'
#1796
0!
b0010110011 %
0'
b0010110011 (
#1801
1!
1'
#1806
0!
b0010110100 %
0'
b0010110100 (
#1811
1!
1'
#1816
0!
b0010110101 %
0'
b0010110101 (
#1821
1!
1'
#1826
0!
b0010110110 %
0'
b0010110110 (
#1831
1!
1'
#1836
0!
b0010110111 %
0'
b0010110111 (
#1841
1!
1'
#1846
0!
b0010111000 %
0'
b0010111000 (
#1851
1!
1'
#1856
0!
b0010111001 %
0'
b0010111001 (
#1861
1!
1'
#1866
0!
b0010111010 %
0'
b0010111010 (
#1871
1!
1'
#1876
0!
b0010111011 %
0'
b0010111011 (
#1881
1!
1'
#1886
0!
b0010111100 %
0'
b0010111100 (
#1891
1!
1'
#1896
0!
b0010111101 %
0'
b0010111101 (
#1901
1!
1'
#1906
0!
b0010111110 %
0'
b0010111110 (
#1911
1!
1'
#1916
0!
b0010111111 %
0'
b0010111111 (
#1921
1!
1'
#1926
0!
b0011000000 %
0'
b0011000000 (
#1931
1!
1'
#1936
0!
b0011000001 %
0'
b0011000001 (
#1941
1!
1'
#1946
0!
b0011000010 %
0'
b0011000010 (
#1951
1!
1'
#1956
0!
b0011000011 %
0'
b0011000011 (
#1961
1!
1'
#1966
0!
b0011000100 %
0'
b0011000100 (
#1971
1!
1'
#1976
0!
b0011000101 %
0'
b0011000101 (
#1981
1!
1'
#1986
0!
b0011000110 %
0'
b0011000110 (
#1991
1!
1'
#1996
0!
b0011000111 %
0'
b0011000111 (
#2001
1!
1'
#2006
0!
b0011001000 %
0'
b0011001000 (
#2011
1!
1'
#2016
0!
b0011001001 %
0'
b0011001001 (
#2021
1!
1'
#2026
0!
b0011001010 %
0'
b0011001010 (
#2031
1!
1'
#2036
0!
b0011001011 %
0'
b0011001011 (
#2041
1!
1'
#2046
0!
b0011001100 %
0'
b0011001100 (
#2051
1!
1'
#2056
0!
b0011001101 %
0'
b0011001101 (
#2061
1!
1'
#2066
0!
b0011001110 %
0'
b0011001110 (
#2071
1!
1'
#2076
0!
b0011001111 %
0'
b0011001111 (
#2081
1!
1'
#2086
0!
b0011010000 %
0'
b0011010000 (
#2091
1!
1'
#2096
0!
b0011010001 %
0'
b0011010001 (
#2101
1!
1'
#2106
0!
b0011010010 %
0'
b0011010010 (
#2111
1!
1'
#2116
0!
b0011010011 %
0'
b0011010011 (
#2121
1!
1'
#2126
0!
b0011010100 %
0'
b0011010100 (
#2131
1!
1'
#2136
0!
b0011010101 %
0'
b0011010101 (
#2141
1!
1'
#2146
0!
b0011010110 %
0'
b0011010110 (
#2151
1!
1'
#2156
0!
b0011010111 %
0'
b0011010111 (
#2161
1!
1'
#2166
0!
b0011011000 %
0'
b0011011000 (
#2171
1!
1'
#2176
0!
b0011011001 %
0'
b0011011001 (
#2181
1!
1'
#2186
0!
b0011011010 %
0'
b0011011010 (
#2191
1!
1'
#2196
0!
b0011011011 %
0'
b0011011011 (
#2201
1!
1'
#2206
0!
b0011011100 %
0'
b0011011100 (
#2211
1!
1'
#2216
0!
b0011011101 %
0'
b0011011101 (
#2221
1!
1'
#2226
0!
b0011011110 %
0'
b0011011110 (
#2231
1!
1'
#2236
0!
b0011011111 %
0'
b0011011111 (
#2241
1!
1'
#2246
0!
b0011100000 %
0'
b0011100000 (
#2251
1!
1'
#2256
0!
b0011100001 %
0'
b0011100001 (
#2261
1!
1'
#2266
0!
b0011100010 %
0'
b0011100010 (
#2271
1!
1'
#2276
0!
b0011100011 %
0'
b0011100011 (
#2281
1!
1'
#2286
0!
b0011100100 %
0'
b0011100100 (
#2291
1!
1'
#2296
0!
b0011100101 %
0'
b0011100101 (
#2301
1!
1'
#2306
0!
b0011100110 %
0'
b0011100110 (
#2311
1!
1'
#2316
0!
b0011100111 %
0'
b0011100111 (
#2321
1!
1'
#2326
0!
b0011101000 %
0'
b0011101000 (
#2331
1!
1'
#2336
0!
b0011101001 %
0'
b0011101001 (
#2341
1!
1'
#2346
0!
b0011101010 %
0'
b0011101010 (
#2351
1!
1'
#2356
0!
b0011101011 %
0'
b0011101011 (
#2361
1!
1'
#2366
0!
b0011101100 %
0'
b0011101100 (
#2371
1!
1'
#2376
0!
b0011101101 %
0'
b0011101101 (
#2381
1!
1'
#2386
0!
b0011101110 %
0'
b0011101110 (
#2391
1!
1'
#2396
0!
b0011101111 %
0'
b0011101111 (
#2401
1!
1'
#2406
0!
b0011110000 %
0'
b0011110000 (
#2411
1!
1'
#2416
0!
b0011110001 %
0'
b0011110001 (
#2421
1!
1'
#2426
0!
b0011110010 %
0'
b0011110010 (
#2431
1!
1'
#2436
0!
b0011110011 %
0'
b0011110011 (
#2441
1!
1'
#2446
0!
b0011110100 %
0'
b0011110100 (
#2451
1!
1'
#2456
0!
b0011110101 %
0'
b0011110101 (
#2461
1!
1'
#2466
0!
b0011110110 %
0'
b0011110110 (
#2471
1!
1'
#2476
0!
b0011110111 %
0'
b0011110111 (
#2481
1!
1'
#2486
0!
b0011111000 %
0'
b0011111000 (
#2491
1!
1'
#2496
0!
b0011111001 %
0'
b0011111001 (
#2501
1!
1'
#2506
0!
b0011111010 %
0'
b0011111010 (
#2511
1!
1'
#2516
0!
b0011111011 %
0'
b0011111011 (
#2521
1!
1'
#2526
0!
b0011111100 %
0'
b0011111100 (
#2531
1!
1'
#2536
0!
b0011111101 %
0'
b0011111101 (
#2541
1!
1'
#2546
0!
b0011111110 %
0'
b0011111110 (
#2551
1!
1'
#2556
0!
b0011111111 %
0'
b0011111111 (
#2561
1!
1'
#2566
0!
b0000000000 %
0'
