ALU/test_run_dir/WaveSpec_should_pass/Alu.vcd
$date
2026-07-03T05:57+0000
$end
$version
0.2
$end
$comment

$end
$timescale 1ns  $end
$scope module Alu $end
 $var wire 1 ! clock $end
 $var wire 16 " io_y $end
 $var wire 16 # io_b $end
 $var wire 16 $ io_a $end
 $var wire 1 % reset $end
 $var wire 2 & io_fn $end
$upscope $end
$enddefinitions $end
$dumpvars
0!
b00 &
b0000000000000000 $
0%
b0000000000000000 #
b0000000000000000 "
$end
#0
1%
#1
1!
#6
0!
0%
#11
1!
#16
0!
b01 &
#21
1!
#26
0!
b10 &
#31
1!
#36
0!
b11 &
#41
1!
#46
0!
b0000000000000001 "
b0000000000000001 #
b00 &
#51
1!
#56
0!
b1111111111111111 "
b01 &
#61
1!
#66
0!
b0000000000000001 "
b10 &
#71
1!
#76
0!
b0000000000000000 "
b11 &
#81
1!
#86
0!
b0000000000000010 "
b0000000000000010 #
b00 &
#91
1!
#96
0!
b1111111111111110 "
b01 &
#101
1!
#106
0!
b0000000000000010 "
b10 &
#111
1!
#116
0!
b0000000000000000 "
b11 &
#121
1!
#126
0!
b0000000000000011 "
b0000000000000011 #
b00 &
#131
1!
#136
0!
b1111111111111101 "
b01 &
#141
1!
#146
0!
b0000000000000011 "
b10 &
#151
1!
#156
0!
b0000000000000000 "
b11 &
#161
1!
#166
0!
b0000000000000100 "
b0000000000000100 #
b00 &
#171
1!
#176
0!
b1111111111111100 "
b01 &
#181
1!
#186
0!
b0000000000000100 "
b10 &
#191
1!
#196
0!
b0000000000000000 "
b11 &
#201
1!
#206
0!
b0000000000000101 "
b0000000000000101 #
b00 &
#211
1!
#216
0!
b1111111111111011 "
b01 &
#221
1!
#226
0!
b0000000000000101 "
b10 &
#231
1!
#236
0!
b0000000000000000 "
b11 &
#241
1!
#246
0!
b0000000000000110 "
b0000000000000110 #
b00 &
#251
1!
#256
0!
b1111111111111010 "
b01 &
#261
1!
#266
0!
b0000000000000110 "
b10 &
#271
1!
#276
0!
b0000000000000000 "
b11 &
#281
1!
#286
0!
b0000000000000111 "
b0000000000000111 #
b00 &
#291
1!
#296
0!
b1111111111111001 "
b01 &
#301
1!
#306
0!
b0000000000000111 "
b10 &
#311
1!
#316
0!
b0000000000000000 "
b11 &
#321
1!
#326
0!
b0000000000001000 "
b0000000000001000 #
b00 &
#331
1!
#336
0!
b1111111111111000 "
b01 &
#341
1!
#346
0!
b0000000000001000 "
b10 &
#351
1!
#356
0!
b0000000000000000 "
b11 &
#361
1!
#366
0!
b0000000000001001 "
b0000000000001001 #
b00 &
#371
1!
#376
0!
b1111111111110111 "
b01 &
#381
1!
#386
0!
b0000000000001001 "
b10 &
#391
1!
#396
0!
b0000000000000000 "
b11 &
#401
1!
#406
0!
b0000000000001010 "
b0000000000001010 #
b00 &
#411
1!
#416
0!
b1111111111110110 "
b01 &
#421
1!
#426
0!
b0000000000001010 "
b10 &
#431
1!
#436
0!
b0000000000000000 "
b11 &
#441
1!
#446
0!
b0000000000000001 "
b0000000000000000 #
b0000000000000001 $
b00 &
#451
1!
#456
0!
b01 &
#461
1!
#466
0!
b10 &
#471
1!
#476
0!
b0000000000000000 "
b11 &
#481
1!
#486
0!
b0000000000000010 "
b0000000000000001 #
b00 &
#491
1!
#496
0!
b0000000000000000 "
b01 &
#501
1!
#506
0!
b0000000000000001 "
b10 &
#511
1!
#516
0!
b11 &
#521
1!
#526
0!
b0000000000000011 "
b0000000000000010 #
b00 &
#531
1!
#536
0!
b1111111111111111 "
b01 &
#541
1!
#546
0!
b0000000000000011 "
b10 &
#551
1!
#556
0!
b0000000000000000 "
b11 &
#561
1!
#566
0!
b0000000000000100 "
b0000000000000011 #
b00 &
#571
1!
#576
0!
b1111111111111110 "
b01 &
#581
1!
#586
0!
b0000000000000011 "
b10 &
#591
1!
#596
0!
b0000000000000001 "
b11 &
#601
1!
#606
0!
b0000000000000101 "
b0000000000000100 #
b00 &
#611
1!
#616
0!
b1111111111111101 "
b01 &
#621
1!
#626
0!
b0000000000000101 "
b10 &
#631
1!
#636
0!
b0000000000000000 "
b11 &
#641
1!
#646
0!
b0000000000000110 "
b0000000000000101 #
b00 &
#651
1!
#656
0!
b1111111111111100 "
b01 &
#661
1!
#666
0!
b0000000000000101 "
b10 &
#671
1!
#676
0!
b0000000000000001 "
b11 &
#681
1!
#686
0!
b0000000000000111 "
b0000000000000110 #
b00 &
#691
1!
#696
0!
b1111111111111011 "
b01 &
#701
1!
#706
0!
b0000000000000111 "
b10 &
#711
1!
#716
0!
b0000000000000000 "
b11 &
#721
1!
#726
0!
b0000000000001000 "
b0000000000000111 #
b00 &
#731
1!
#736
0!
b1111111111111010 "
b01 &
#741
1!
#746
0!
b0000000000000111 "
b10 &
#751
1!
#756
0!
b0000000000000001 "
b11 &
#761
1!
#766
0!
b0000000000001001 "
b0000000000001000 #
b00 &
#771
1!
#776
0!
b1111111111111001 "
b01 &
#781
1!
#786
0!
b0000000000001001 "
b10 &
#791
1!
#796
0!
b0000000000000000 "
b11 &
#801
1!
#806
0!
b0000000000001010 "
b0000000000001001 #
b00 &
#811
1!
#816
0!
b1111111111111000 "
b01 &
#821
1!
#826
0!
b0000000000001001 "
b10 &
#831
1!
#836
0!
b0000000000000001 "
b11 &
#841
1!
#846
0!
b0000000000001011 "
b0000000000001010 #
b00 &
#851
1!
#856
0!
b1111111111110111 "
b01 &
#861
1!
#866
0!
b0000000000001011 "
b10 &
#871
1!
#876
0!
b0000000000000000 "
b11 &
#881
1!
#886
0!
b0000000000000010 "
b0000000000000000 #
b0000000000000010 $
b00 &
#891
1!
#896
0!
b01 &
#901
1!
#906
0!
b10 &
#911
1!
#916
0!
b0000000000000000 "
b11 &
#921
1!
#926
0!
b0000000000000011 "
b0000000000000001 #
b00 &
#931
1!
#936
0!
b0000000000000001 "
b01 &
#941
1!
#946
0!
b0000000000000011 "
b10 &
#951
1!
#956
0!
b0000000000000000 "
b11 &
#961
1!
#966
0!
b0000000000000100 "
b0000000000000010 #
b00 &
#971
1!
#976
0!
b0000000000000000 "
b01 &
#981
1!
#986
0!
b0000000000000010 "
b10 &
#991
1!
#996
0!
b11 &
#1001
1!
#1006
0!
b0000000000000101 "
b0000000000000011 #
b00 &
#1011
1!
#1016
0!
b1111111111111111 "
b01 &
#1021
1!
#1026
0!
b0000000000000011 "
b10 &
#1031
1!
#1036
0!
b0000000000000010 "
b11 &
#1041
1!
#1046
0!
b0000000000000110 "
b0000000000000100 #
b00 &
#1051
1!
#1056
0!
b1111111111111110 "
b01 &
#1061
1!
#1066
0!
b0000000000000110 "
b10 &
#1071
1!
#1076
0!
b0000000000000000 "
b11 &
#1081
1!
#1086
0!
b0000000000000111 "
b0000000000000101 #
b00 &
#1091
1!
#1096
0!
b1111111111111101 "
b01 &
#1101
1!
#1106
0!
b0000000000000111 "
b10 &
#1111
1!
#1116
0!
b0000000000000000 "
b11 &
#1121
1!
#1126
0!
b0000000000001000 "
b0000000000000110 #
b00 &
#1131
1!
#1136
0!
b1111111111111100 "
b01 &
#1141
1!
#1146
0!
b0000000000000110 "
b10 &
#1151
1!
#1156
0!
b0000000000000010 "
b11 &
#1161
1!
#1166
0!
b0000000000001001 "
b0000000000000111 #
b00 &
#1171
1!
#1176
0!
b1111111111111011 "
b01 &
#1181
1!
#1186
0!
b0000000000000111 "
b10 &
#1191
1!
#1196
0!
b0000000000000010 "
b11 &
#1201
1!
#1206
0!
b0000000000001010 "
b0000000000001000 #
b00 &
#1211
1!
#1216
0!
b1111111111111010 "
b01 &
#1221
1!
#1226
0!
b0000000000001010 "
b10 &
#1231
1!
#1236
0!
b0000000000000000 "
b11 &
#1241
1!
#1246
0!
b0000000000001011 "
b0000000000001001 #
b00 &
#1251
1!
#1256
0!
b1111111111111001 "
b01 &
#1261
1!
#1266
0!
b0000000000001011 "
b10 &
#1271
1!
#1276
0!
b0000000000000000 "
b11 &
#1281
1!
#1286
0!
b0000000000001100 "
b0000000000001010 #
b00 &
#1291
1!
#1296
0!
b1111111111111000 "
b01 &
#1301
1!
#1306
0!
b0000000000001010 "
b10 &
#1311
1!
#1316
0!
b0000000000000010 "
b11 &
#1321
1!
#1326
0!
b0000000000000011 "
b0000000000000000 #
b0000000000000011 $
b00 &
#1331
1!
#1336
0!
b01 &
#1341
1!
#1346
0!
b10 &
#1351
1!
#1356
0!
b0000000000000000 "
b11 &
#1361
1!
#1366
0!
b0000000000000100 "
b0000000000000001 #
b00 &
#1371
1!
#1376
0!
b0000000000000010 "
b01 &
#1381
1!
#1386
0!
b0000000000000011 "
b10 &
#1391
1!
#1396
0!
b0000000000000001 "
b11 &
#1401
1!
#1406
0!
b0000000000000101 "
b0000000000000010 #
b00 &
#1411
1!
#1416
0!
b0000000000000001 "
b01 &
#1421
1!
#1426
0!
b0000000000000011 "
b10 &
#1431
1!
#1436
0!
b0000000000000010 "
b11 &
#1441
1!
#1446
0!
b0000000000000110 "
b0000000000000011 #
b00 &
#1451
1!
#1456
0!
b0000000000000000 "
b01 &
#1461
1!
#1466
0!
b0000000000000011 "
b10 &
#1471
1!
#1476
0!
b11 &
#1481
1!
#1486
0!
b0000000000000111 "
b0000000000000100 #
b00 &
#1491
1!
#1496
0!
b1111111111111111 "
b01 &
#1501
1!
#1506
0!
b0000000000000111 "
b10 &
#1511
1!
#1516
0!
b0000000000000000 "
b11 &
#1521
1!
#1526
0!
b0000000000001000 "
b0000000000000101 #
b00 &
#1531
1!
#1536
0!
b1111111111111110 "
b01 &
#1541
1!
#1546
0!
b0000000000000111 "
b10 &
#1551
1!
#1556
0!
b0000000000000001 "
b11 &
#1561
1!
#1566
0!
b0000000000001001 "
b0000000000000110 #
b00 &
#1571
1!
#1576
0!
b1111111111111101 "
b01 &
#1581
1!
#1586
0!
b0000000000000111 "
b10 &
#1591
1!
#1596
0!
b0000000000000010 "
b11 &
#1601
1!
#1606
0!
b0000000000001010 "
b0000000000000111 #
b00 &
#1611
1!
#1616
0!
b1111111111111100 "
b01 &
#1621
1!
#1626
0!
b0000000000000111 "
b10 &
#1631
1!
#1636
0!
b0000000000000011 "
b11 &
#1641
1!
#1646
0!
b0000000000001011 "
b0000000000001000 #
b00 &
#1651
1!
#1656
0!
b1111111111111011 "
b01 &
#1661
1!
#1666
0!
b0000000000001011 "
b10 &
#1671
1!
#1676
0!
b0000000000000000 "
b11 &
#1681
1!
#1686
0!
b0000000000001100 "
b0000000000001001 #
b00 &
#1691
1!
#1696
0!
b1111111111111010 "
b01 &
#1701
1!
#1706
0!
b0000000000001011 "
b10 &
#1711
1!
#1716
0!
b0000000000000001 "
b11 &
#1721
1!
#1726
0!
b0000000000001101 "
b0000000000001010 #
b00 &
#1731
1!
#1736
0!
b1111111111111001 "
b01 &
#1741
1!
#1746
0!
b0000000000001011 "
b10 &
#1751
1!
#1756
0!
b0000000000000010 "
b11 &
#1761
1!
#1766
0!
b0000000000000100 "
b0000000000000000 #
b0000000000000100 $
b00 &
#1771
1!
#1776
0!
b01 &
#1781
1!
#1786
0!
b10 &
#1791
1!
#1796
0!
b0000000000000000 "
b11 &
#1801
1!
#1806
0!
b0000000000000101 "
b0000000000000001 #
b00 &
#1811
1!
#1816
0!
b0000000000000011 "
b01 &
#1821
1!
#1826
0!
b0000000000000101 "
b10 &
#1831
1!
#1836
0!
b0000000000000000 "
b11 &
#1841
1!
#1846
0!
b0000000000000110 "
b0000000000000010 #
b00 &
#1851
1!
#1856
0!
b0000000000000010 "
b01 &
#1861
1!
#1866
0!
b0000000000000110 "
b10 &
#1871
1!
#1876
0!
b0000000000000000 "
b11 &
#1881
1!
#1886
0!
b0000000000000111 "
b0000000000000011 #
b00 &
#1891
1!
#1896
0!
b0000000000000001 "
b01 &
#1901
1!
#1906
0!
b0000000000000111 "
b10 &
#1911
1!
#1916
0!
b0000000000000000 "
b11 &
#1921
1!
#1926
0!
b0000000000001000 "
b0000000000000100 #
b00 &
#1931
1!
#1936
0!
b0000000000000000 "
b01 &
#1941
1!
#1946
0!
b0000000000000100 "
b10 &
#1951
1!
#1956
0!
b11 &
#1961
1!
#1966
0!
b0000000000001001 "
b0000000000000101 #
b00 &
#1971
1!
#1976
0!
b1111111111111111 "
b01 &
#1981
1!
#1986
0!
b0000000000000101 "
b10 &
#1991
1!
#1996
0!
b0000000000000100 "
b11 &
#2001
1!
#2006
0!
b0000000000001010 "
b0000000000000110 #
b00 &
#2011
1!
#2016
0!
b1111111111111110 "
b01 &
#2021
1!
#2026
0!
b0000000000000110 "
b10 &
#2031
1!
#2036
0!
b0000000000000100 "
b11 &
#2041
1!
#2046
0!
b0000000000001011 "
b0000000000000111 #
b00 &
#2051
1!
#2056
0!
b1111111111111101 "
b01 &
#2061
1!
#2066
0!
b0000000000000111 "
b10 &
#2071
1!
#2076
0!
b0000000000000100 "
b11 &
#2081
1!
#2086
0!
b0000000000001100 "
b0000000000001000 #
b00 &
#2091
1!
#2096
0!
b1111111111111100 "
b01 &
#2101
1!
#2106
0!
b0000000000001100 "
b10 &
#2111
1!
#2116
0!
b0000000000000000 "
b11 &
#2121
1!
#2126
0!
b0000000000001101 "
b0000000000001001 #
b00 &
#2131
1!
#2136
0!
b1111111111111011 "
b01 &
#2141
1!
#2146
0!
b0000000000001101 "
b10 &
#2151
1!
#2156
0!
b0000000000000000 "
b11 &
#2161
1!
#2166
0!
b0000000000001110 "
b0000000000001010 #
b00 &
#2171
1!
#2176
0!
b1111111111111010 "
b01 &
#2181
1!
#2186
0!
b0000000000001110 "
b10 &
#2191
1!
#2196
0!
b0000000000000000 "
b11 &
#2201
1!
#2206
0!
b0000000000000101 "
b0000000000000000 #
b0000000000000101 $
b00 &
#2211
1!
#2216
0!
b01 &
#2221
1!
#2226
0!
b10 &
#2231
1!
#2236
0!
b0000000000000000 "
b11 &
#2241
1!
#2246
0!
b0000000000000110 "
b0000000000000001 #
b00 &
#2251
1!
#2256
0!
b0000000000000100 "
b01 &
#2261
1!
#2266
0!
b0000000000000101 "
b10 &
#2271
1!
#2276
0!
b0000000000000001 "
b11 &
#2281
1!
#2286
0!
b0000000000000111 "
b0000000000000010 #
b00 &
#2291
1!
#2296
0!
b0000000000000011 "
b01 &
#2301
1!
#2306
0!
b0000000000000111 "
b10 &
#2311
1!
#2316
0!
b0000000000000000 "
b11 &
#2321
1!
#2326
0!
b0000000000001000 "
b0000000000000011 #
b00 &
#2331
1!
#2336
0!
b0000000000000010 "
b01 &
#2341
1!
#2346
0!
b0000000000000111 "
b10 &
#2351
1!
#2356
0!
b0000000000000001 "
b11 &
#2361
1!
#2366
0!
b0000000000001001 "
b0000000000000100 #
b00 &
#2371
1!
#2376
0!
b0000000000000001 "
b01 &
#2381
1!
#2386
0!
b0000000000000101 "
b10 &
#2391
1!
#2396
0!
b0000000000000100 "
b11 &
#2401
1!
#2406
0!
b0000000000001010 "
b0000000000000101 #
b00 &
#2411
1!
#2416
0!
b0000000000000000 "
b01 &
#2421
1!
#2426
0!
b0000000000000101 "
b10 &
#2431
1!
#2436
0!
b11 &
#2441
1!
#2446
0!
b0000000000001011 "
b0000000000000110 #
b00 &
#2451
1!
#2456
0!
b1111111111111111 "
b01 &
#2461
1!
#2466
0!
b0000000000000111 "
b10 &
#2471
1!
#2476
0!
b0000000000000100 "
b11 &
#2481
1!
#2486
0!
b0000000000001100 "
b0000000000000111 #
b00 &
#2491
1!
#2496
0!
b1111111111111110 "
b01 &
#2501
1!
#2506
0!
b0000000000000111 "
b10 &
#2511
1!
#2516
0!
b0000000000000101 "
b11 &
#2521
1!
#2526
0!
b0000000000001101 "
b0000000000001000 #
b00 &
#2531
1!
#2536
0!
b1111111111111101 "
b01 &
#2541
1!
#2546
0!
b0000000000001101 "
b10 &
#2551
1!
#2556
0!
b0000000000000000 "
b11 &
#2561
1!
#2566
0!
b0000000000001110 "
b0000000000001001 #
b00 &
#2571
1!
#2576
0!
b1111111111111100 "
b01 &
#2581
1!
#2586
0!
b0000000000001101 "
b10 &
#2591
1!
#2596
0!
b0000000000000001 "
b11 &
#2601
1!
#2606
0!
b0000000000001111 "
b0000000000001010 #
b00 &
#2611
1!
#2616
0!
b1111111111111011 "
b01 &
#2621
1!
#2626
0!
b0000000000001111 "
b10 &
#2631
1!
#2636
0!
b0000000000000000 "
b11 &
#2641
1!
#2646
0!
b0000000000000110 "
b0000000000000000 #
b0000000000000110 $
b00 &
#2651
1!
#2656
0!
b01 &
#2661
1!
#2666
0!
b10 &
#2671
1!
#2676
0!
b0000000000000000 "
b11 &
#2681
1!
#2686
0!
b0000000000000111 "
b0000000000000001 #
b00 &
#2691
1!
#2696
0!
b0000000000000101 "
b01 &
#2701
1!
#2706
0!
b0000000000000111 "
b10 &
#2711
1!
#2716
0!
b0000000000000000 "
b11 &
#2721
1!
#2726
0!
b0000000000001000 "
b0000000000000010 #
b00 &
#2731
1!
#2736
0!
b0000000000000100 "
b01 &
#2741
1!
#2746
0!
b0000000000000110 "
b10 &
#2751
1!
#2756
0!
b0000000000000010 "
b11 &
#2761
1!
#2766
0!
b0000000000001001 "
b0000000000000011 #
b00 &
#2771
1!
#2776
0!
b0000000000000011 "
b01 &
#2781
1!
#2786
0!
b0000000000000111 "
b10 &
#2791
1!
#2796
0!
b0000000000000010 "
b11 &
#2801
1!
#2806
0!
b0000000000001010 "
b0000000000000100 #
b00 &
#2811
1!
#2816
0!
b0000000000000010 "
b01 &
#2821
1!
#2826
0!
b0000000000000110 "
b10 &
#2831
1!
#2836
0!
b0000000000000100 "
b11 &
#2841
1!
#2846
0!
b0000000000001011 "
b0000000000000101 #
b00 &
#2851
1!
#2856
0!
b0000000000000001 "
b01 &
#2861
1!
#2866
0!
b0000000000000111 "
b10 &
#2871
1!
#2876
0!
b0000000000000100 "
b11 &
#2881
1!
#2886
0!
b0000000000001100 "
b0000000000000110 #
b00 &
#2891
1!
#2896
0!
b0000000000000000 "
b01 &
#2901
1!
#2906
0!
b0000000000000110 "
b10 &
#2911
1!
#2916
0!
b11 &
#2921
1!
#2926
0!
b0000000000001101 "
b0000000000000111 #
b00 &
#2931
1!
#2936
0!
b1111111111111111 "
b01 &
#2941
1!
#2946
0!
b0000000000000111 "
b10 &
#2951
1!
#2956
0!
b0000000000000110 "
b11 &
#2961
1!
#2966
0!
b0000000000001110 "
b0000000000001000 #
b00 &
#2971
1!
#2976
0!
b1111111111111110 "
b01 &
#2981
1!
#2986
0!
b0000000000001110 "
b10 &
#2991
1!
#2996
0!
b0000000000000000 "
b11 &
#3001
1!
#3006
0!
b0000000000001111 "
b0000000000001001 #
b00 &
#3011
1!
#3016
0!
b1111111111111101 "
b01 &
#3021
1!
#3026
0!
b0000000000001111 "
b10 &
#3031
1!
#3036
0!
b0000000000000000 "
b11 &
#3041
1!
#3046
0!
b0000000000010000 "
b0000000000001010 #
b00 &
#3051
1!
#3056
0!
b1111111111111100 "
b01 &
#3061
1!
#3066
0!
b0000000000001110 "
b10 &
#3071
1!
#3076
0!
b0000000000000010 "
b11 &
#3081
1!
#3086
0!
b0000000000000111 "
b0000000000000000 #
b0000000000000111 $
b00 &
#3091
1!
#3096
0!
b01 &
#3101
1!
#3106
0!
b10 &
#3111
1!
#3116
0!
b0000000000000000 "
b11 &
#3121
1!
#3126
0!
b0000000000001000 "
b0000000000000001 #
b00 &
#3131
1!
#3136
0!
b0000000000000110 "
b01 &
#3141
1!
#3146
0!
b0000000000000111 "
b10 &
#3151
1!
#3156
0!
b0000000000000001 "
b11 &
#3161
1!
#3166
0!
b0000000000001001 "
b0000000000000010 #
b00 &
#3171
1!
#3176
0!
b0000000000000101 "
b01 &
#3181
1!
#3186
0!
b0000000000000111 "
b10 &
#3191
1!
#3196
0!
b0000000000000010 "
b11 &
#3201
1!
#3206
0!
b0000000000001010 "
b0000000000000011 #
b00 &
#3211
1!
#3216
0!
b0000000000000100 "
b01 &
#3221
1!
#3226
0!
b0000000000000111 "
b10 &
#3231
1!
#3236
0!
b0000000000000011 "
b11 &
#3241
1!
#3246
0!
b0000000000001011 "
b0000000000000100 #
b00 &
#3251
1!
#3256
0!
b0000000000000011 "
b01 &
#3261
1!
#3266
0!
b0000000000000111 "
b10 &
#3271
1!
#3276
0!
b0000000000000100 "
b11 &
#3281
1!
#3286
0!
b0000000000001100 "
b0000000000000101 #
b00 &
#3291
1!
#3296
0!
b0000000000000010 "
b01 &
#3301
1!
#3306
0!
b0000000000000111 "
b10 &
#3311
1!
#3316
0!
b0000000000000101 "
b11 &
#3321
1!
#3326
0!
b0000000000001101 "
b0000000000000110 #
b00 &
#3331
1!
#3336
0!
b0000000000000001 "
b01 &
#3341
1!
#3346
0!
b0000000000000111 "
b10 &
#3351
1!
#3356
0!
b0000000000000110 "
b11 &
#3361
1!
#3366
0!
b0000000000001110 "
b0000000000000111 #
b00 &
#3371
1!
#3376
0!
b0000000000000000 "
b01 &
#3381
1!
#3386
0!
b0000000000000111 "
b10 &
#3391
1!
#3396
0!
b11 &
#3401
1!
#3406
0!
b0000000000001111 "
b0000000000001000 #
b00 &
#3411
1!
#3416
0!
b1111111111111111 "
b01 &
#3421
1!
#3426
0!
b0000000000001111 "
b10 &
#3431
1!
#3436
0!
b0000000000000000 "
b11 &
#3441
1!
#3446
0!
b0000000000010000 "
b0000000000001001 #
b00 &
#3451
1!
#3456
0!
b1111111111111110 "
b01 &
#3461
1!
#3466
0!
b0000000000001111 "
b10 &
#3471
1!
#3476
0!
b0000000000000001 "
b11 &
#3481
1!
#3486
0!
b0000000000010001 "
b0000000000001010 #
b00 &
#3491
1!
#3496
0!
b1111111111111101 "
b01 &
#3501
1!
#3506
0!
b0000000000001111 "
b10 &
#3511
1!
#3516
0!
b0000000000000010 "
b11 &
#3521
1!
#3526
0!
b0000000000001000 "
b0000000000000000 #
b0000000000001000 $
b00 &
#3531
1!
#3536
0!
b01 &
#3541
1!
#3546
0!
b10 &
#3551
1!
#3556
0!
b0000000000000000 "
b11 &
#3561
1!
#3566
0!
b0000000000001001 "
b0000000000000001 #
b00 &
#3571
1!
#3576
0!
b0000000000000111 "
b01 &
#3581
1!
#3586
0!
b0000000000001001 "
b10 &
#3591
1!
#3596
0!
b0000000000000000 "
b11 &
#3601
1!
#3606
0!
b0000000000001010 "
b0000000000000010 #
b00 &
#3611
1!
#3616
0!
b0000000000000110 "
b01 &
#3621
1!
#3626
0!
b0000000000001010 "
b10 &
#3631
1!
#3636
0!
b0000000000000000 "
b11 &
#3641
1!
#3646
0!
b0000000000001011 "
b0000000000000011 #
b00 &
#3651
1!
#3656
0!
b0000000000000101 "
b01 &
#3661
1!
#3666
0!
b0000000000001011 "
b10 &
#3671
1!
#3676
0!
b0000000000000000 "
b11 &
#3681
1!
#3686
0!
b0000000000001100 "
b0000000000000100 #
b00 &
#3691
1!
#3696
0!
b0000000000000100 "
b01 &
#3701
1!
#3706
0!
b0000000000001100 "
b10 &
#3711
1!
#3716
0!
b0000000000000000 "
b11 &
#3721
1!
#3726
0!
b0000000000001101 "
b0000000000000101 #
b00 &
#3731
1!
#3736
0!
b0000000000000011 "
b01 &
#3741
1!
#3746
0!
b0000000000001101 "
b10 &
#3751
1!
#3756
0!
b0000000000000000 "
b11 &
#3761
1!
#3766
0!
b0000000000001110 "
b0000000000000110 #
b00 &
#3771
1!
#3776
0!
b0000000000000010 "
b01 &
#3781
1!
#3786
0!
b0000000000001110 "
b10 &
#3791
1!
#3796
0!
b0000000000000000 "
b11 &
#3801
1!
#3806
0!
b0000000000001111 "
b0000000000000111 #
b00 &
#3811
1!
#3816
0!
b0000000000000001 "
b01 &
#3821
1!
#3826
0!
b0000000000001111 "
b10 &
#3831
1!
#3836
0!
b0000000000000000 "
b11 &
#3841
1!
#3846
0!
b0000000000010000 "
b0000000000001000 #
b00 &
#3851
1!
#3856
0!
b0000000000000000 "
b01 &
#3861
1!
#3866
0!
b0000000000001000 "
b10 &
#3871
1!
#3876
0!
b11 &
#3881
1!
#3886
0!
b0000000000010001 "
b0000000000001001 #
b00 &
#3891
1!
#3896
0!
b1111111111111111 "
b01 &
#3901
1!
#3906
0!
b0000000000001001 "
b10 &
#3911
1!
#3916
0!
b0000000000001000 "
b11 &
#3921
1!
#3926
0!
b0000000000010010 "
b0000000000001010 #
b00 &
#3931
1!
#3936
0!
b1111111111111110 "
b01 &
#3941
1!
#3946
0!
b0000000000001010 "
b10 &
#3951
1!
#3956
0!
b0000000000001000 "
b11 &
#3961
1!
#3966
0!
b0000000000001001 "
b0000000000000000 #
b0000000000001001 $
b00 &
#3971
1!
#3976
0!
b01 &
#3981
1!
#3986
0!
b10 &
#3991
1!
#3996
0!
b0000000000000000 "
b11 &
#4001
1!
#4006
0!
b0000000000001010 "
b0000000000000001 #
b00 &
#4011
1!
#4016
0!
b0000000000001000 "
b01 &
#4021
1!
#4026
0!
b0000000000001001 "
b10 &
#4031
1!
#4036
0!
b0000000000000001 "
b11 &
#4041
1!
#4046
0!
b0000000000001011 "
b0000000000000010 #
b00 &
#4051
1!
#4056
0!
b0000000000000111 "
b01 &
#4061
1!
#4066
0!
b0000000000001011 "
b10 &
#4071
1!
#4076
0!
b0000000000000000 "
b11 &
#4081
1!
#4086
0!
b0000000000001100 "
b0000000000000011 #
b00 &
#4091
1!
#4096
0!
b0000000000000110 "
b01 &
#4101
1!
#4106
0!
b0000000000001011 "
b10 &
#4111
1!
#4116
0!
b0000000000000001 "
b11 &
#4121
1!
#4126
0!
b0000000000001101 "
b0000000000000100 #
b00 &
#4131
1!
#4136
0!
b0000000000000101 "
b01 &
#4141
1!
#4146
0!
b0000000000001101 "
b10 &
#4151
1!
#4156
0!
b0000000000000000 "
b11 &
#4161
1!
#4166
0!
b0000000000001110 "
b0000000000000101 #
b00 &
#4171
1!
#4176
0!
b0000000000000100 "
b01 &
#4181
1!
#4186
0!
b0000000000001101 "
b10 &
#4191
1!
#4196
0!
b0000000000000001 "
b11 &
#4201
1!
#4206
0!
b0000000000001111 "
b0000000000000110 #
b00 &
#4211
1!
#4216
0!
b0000000000000011 "
b01 &
#4221
1!
#4226
0!
b0000000000001111 "
b10 &
#4231
1!
#4236
0!
b0000000000000000 "
b11 &
#4241
1!
#4246
0!
b0000000000010000 "
b0000000000000111 #
b00 &
#4251
1!
#4256
0!
b0000000000000010 "
b01 &
#4261
1!
#4266
0!
b0000000000001111 "
b10 &
#4271
1!
#4276
0!
b0000000000000001 "
b11 &
#4281
1!
#4286
0!
b0000000000010001 "
b0000000000001000 #
b00 &
#4291
1!
#4296
0!
b0000000000000001 "
b01 &
#4301
1!
#4306
0!
b0000000000001001 "
b10 &
#4311
1!
#4316
0!
b0000000000001000 "
b11 &
#4321
1!
#4326
0!
b0000000000010010 "
b0000000000001001 #
b00 &
#4331
1!
#4336
0!
b0000000000000000 "
b01 &
#4341
1!
#4346
0!
b0000000000001001 "
b10 &
#4351
1!
#4356
0!
b11 &
#4361
1!
#4366
0!
b0000000000010011 "
b0000000000001010 #
b00 &
#4371
1!
#4376
0!
b1111111111111111 "
b01 &
#4381
1!
#4386
0!
b0000000000001011 "
b10 &
#4391
1!
#4396
0!
b0000000000001000 "
b11 &
#4401
1!
#4406
0!
b0000000000001010 "
b0000000000000000 #
b0000000000001010 $
b00 &
#4411
1!
#4416
0!
b01 &
#4421
1!
#4426
0!
b10 &
#4431
1!
#4436
0!
b0000000000000000 "
b11 &
#4441
1!
#4446
0!
b0000000000001011 "
b0000000000000001 #
b00 &
#4451
1!
#4456
0!
b0000000000001001 "
b01 &
#4461
1!
#4466
0!
b0000000000001011 "
b10 &
#4471
1!
#4476
0!
b0000000000000000 "
b11 &
#4481
1!
#4486
0!
b0000000000001100 "
b0000000000000010 #
b00 &
#4491
1!
#4496
0!
b0000000000001000 "
b01 &
#4501
1!
#4506
0!
b0000000000001010 "
b10 &
#4511
1!
#4516
0!
b0000000000000010 "
b11 &
#4521
1!
#4526
0!
b0000000000001101 "
b0000000000000011 #
b00 &
#4531
1!
#4536
0!
b0000000000000111 "
b01 &
#4541
1!
#4546
0!
b0000000000001011 "
b10 &
#4551
1!
#4556
0!
b0000000000000010 "
b11 &
#4561
1!
#4566
0!
b0000000000001110 "
b0000000000000100 #
b00 &
#4571
1!
#4576
0!
b0000000000000110 "
b01 &
#4581
1!
#4586
0!
b0000000000001110 "
b10 &
#4591
1!
#4596
0!
b0000000000000000 "
b11 &
#4601
1!
#4606
0!
b0000000000001111 "
b0000000000000101 #
b00 &
#4611
1!
#4616
0!
b0000000000000101 "
b01 &
#4621
1!
#4626
0!
b0000000000001111 "
b10 &
#4631
1!
#4636
0!
b0000000000000000 "
b11 &
#4641
1!
#4646
0!
b0000000000010000 "
b0000000000000110 #
b00 &
#4651
1!
#4656
0!
b0000000000000100 "
b01 &
#4661
1!
#4666
0!
b0000000000001110 "
b10 &
#4671
1!
#4676
0!
b0000000000000010 "
b11 &
#4681
1!
#4686
0!
b0000000000010001 "
b0000000000000111 #
b00 &
#4691
1!
#4696
0!
b0000000000000011 "
b01 &
#4701
1!
#4706
0!
b0000000000001111 "
b10 &
#4711
1!
#4716
0!
b0000000000000010 "
b11 &
#4721
1!
#4726
0!
b0000000000010010 "
b0000000000001000 #
b00 &
#4731
1!
#4736
0!
b0000000000000010 "
b01 &
#4741
1!
#4746
0!
b0000000000001010 "
b10 &
#4751
1!
#4756
0!
b0000000000001000 "
b11 &
#4761
1!
#4766
0!
b0000000000010011 "
b0000000000001001 #
b00 &
#4771
1!
#4776
0!
b0000000000000001 "
b01 &
#4781
1!
#4786
0!
b0000000000001011 "
b10 &
#4791
1!
#4796
0!
b0000000000001000 "
b11 &
#4801
1!
#4806
0!
b0000000000010100 "
b0000000000001010 #
b00 &
#4811
1!
