Decode/test_run_dir/SimpleTest_should_pass/Decode.vcd
$date
2026-07-03T06:08+0000
$end
$version
0.2
$end
$comment

$end
$timescale 1ns  $end
$scope module Decode $end
 $var wire 4 ! io_ctrlSignalsOut $end
 $var wire 1 " clock $end
 $var wire 4 # io_opcodeIn $end
 $var wire 1 $ reset $end
$upscope $end
$enddefinitions $end
$dumpvars
0"
b0000 #
0$
b0000 !
$end
#0
1$
#1
1"
#6
0"
0$
#11
1"
#16
0"
b0001 #
#21
1"
#26
0"
b0010 #
#31
1"
#36
0"
b0011 #
#41
1"
#46
0"
b0100 #
#51
1"
#56
0"
b0101 #
#61
1"
#66
0"
b0110 #
#71
1"
#76
0"
b0111 #
#81
1"
#86
b0011 !
0"
b1000 #
#91
1"
#96
b0000 !
0"
b1001 #
#101
1"
#106
0"
b1010 #
#111
1"
#116
0"
b1011 #
#121
1"
#126
b0010 !
0"
b1100 #
#131
1"
#136
b0000 !
0"
b1101 #
#141
1"
#146
0"
b1110 #
#151
1"
#156
0"
b1111 #
#161
1"
#166
0"
b0000 #
